[
    {
        "engine": "yandex", 
        "domain": "ru", 
        "region_code": "2", 
        "region_name": "peterburg",
        "page_region": "в Санкт-Петербурге", 
        "params": {}
    }, 
    {
        "engine": "yandex", 
        "domain": "ru", 
        "region_code": "54", 
        "region_name": "ekaterinburg",
        "page_region": null, 
        "params": {}
    }, 
    {
        "engine": "google", 
        "domain": "ru", 
        "region_code": "10KHQsNC90LrRgi3Qn9C10YLQtdGA0LHRg9GA0LM",
        "region_name": "peterburg",
        "page_region": null, 
        "params": {
            "hl": "ru"
        }
    }, 
    {
        "engine": "google", 
        "domain": "ru", 
        "region_code": "10JXQutCw0YLQtdGA0LjQvdCx0YPRgNCz", 
        "region_name": "ekaterinburg",
        "page_region": null, 
        "params": {
            "hl": "ru"
        }
    }, 
    {
        "engine": "yandex", 
        "domain": "ru", 
        "region_code": "45", 
        "region_name": "kazan",
        "page_region": null, 
        "params": {}
    }, 
    {
        "engine": "yandex", 
        "domain": "ru", 
        "region_code": "65", 
        "region_name": "novosibirsk",
        "page_region": null, 
        "params": {}
    }, 
    {
        "engine": "yandex", 
        "domain": "ru", 
        "region_code": "35", 
        "region_name": "krasnodar",
        "page_region": null, 
        "params": {}
    }, 
    {
        "engine": "yandex", 
        "domain": "39", 
        "region_code": "ru", 
        "region_name": "rostov",
        "page_region": null, 
        "params": {}
    }, 
    {
        "engine": "yandex", 
        "domain": "ru", 
        "region_code": "193", 
        "region_name": "voronezh",
        "page_region": null, 
        "params": {}
    }, 
    {
        "engine": "yandex", 
        "domain": "ru", 
        "region_code": "172", 
        "region_name": "ufa",
        "page_region": null, 
        "params": {}
    }, 
    {
        "engine": "yandex", 
        "domain": "ru", 
        "region_code": "66", 
        "region_name": "omsk",
        "page_region": null, 
        "params": {}
    }, 
    {
        "engine": "yandex", 
        "domain": "kz", 
        "region_code": "163", 
        "region_name": "astana",
        "page_region": null, 
        "params": {}
    }, 
    {
        "engine": "yandex", 
        "domain": "ua", 
        "region_code": "143", 
        "region_name": "kiev",
        "page_region": null, 
        "params": {}
    }, 
    {
        "engine": "yandex", 
        "domain": "by", 
        "region_code": "157", 
        "region_name": "minsk",
        "page_region": null, 
        "params": {}
    }, 
    {
        "engine": "google", 
        "domain": "ru", 
        "region_code": "10LrQsNC30LDQvdGM", 
        "region_name": "kazan",
        "page_region": null, 
        "params": {
            "hl": "ru"
        }
    }, 
    {
        "engine": "google", 
        "domain": "ru", 
        "region_code": "10L3QvtCy0L7RgdC40LHQuNGA0YHQug", 
        "region_name": "novosibirsk",
        "page_region": null, 
        "params": {
            "hl": "ru"
        }
    }, 
    {
        "engine": "google", 
        "domain": "ru", 
        "region_code": "10LrRgNCw0YHQvdC-0LTQsNGA", 
        "region_name": "krasnodar",
        "page_region": null, 
        "params": {
            "hl": "ru"
        }
    }, 
    {
        "engine": "google", 
        "domain": "ru", 
        "region_code": "10YDQvtGB0YLQvtCy", 
        "region_name": "rostov",
        "page_region": null, 
        "params": {
            "hl": "ru"
        }
    }, 
    {
        "engine": "google", 
        "domain": "ru", 
        "region_code": "10LLQvtGA0L7QvdC10LY", 
        "region_name": "voronezh",
        "page_region": null, 
        "params": {
            "hl": "ru"
        }
    }, 
    {
        "engine": "google", 
        "domain": "ru", 
        "region_code": "10YPRhNCw", 
        "region_name": "ufa",
        "page_region": null, 
        "params": {
            "hl": "ru"
        }
    }, 
    {
        "engine": "google", 
        "domain": "ru", 
        "region_code": "10L7QvNGB0Lo", 
        "region_name": "omsk",
        "page_region": null, 
        "params": {
            "hl": "ru"
        }
    }, 
    {
        "engine": "google", 
        "domain": "kz", 
        "region_code": "10JDRgdGC0LDQvdCw", 
        "region_name": "astana",
        "page_region": null, 
        "params": {
            "hl": "ru"
        }
    }, 
    {
        "engine": "google", 
        "domain": "com.ua", 
        "region_code": "10JrQuNC10LI", 
        "region_name": "kiev",
        "page_region": null, 
        "params": {
            "hl": "ru"
        }
    }, 
    {
        "engine": "google", 
        "domain": "by", 
        "region_code": "10JzQuNC90YHQug", 
        "region_name": "minsk",
        "page_region": null, 
        "params": {
            "hl": "ru"
        }
    }, 
    {
        "engine": "yandex", 
        "domain": "ru", 
        "region_code": "1", 
        "region_name": "moscow_region",
        "page_region": null, 
        "params": {}
    }, 
    {
        "engine": "google", 
        "domain": "ru", 
        "region_code": "10JLQu9Cw0LTQuNCy0L7RgdGC0L7Qug", 
        "region_name": "vladivostok",
        "page_region": null, 
        "params": {
            "hl": "ru"
        }
    }, 
    {
        "engine": "yandex", 
        "domain": "ru", 
        "region_code": "225", 
        "region_name": "russia",
        "page_region": null, 
        "params": {}
    }, 
    {
        "engine": "yandex", 
        "domain": "ru", 
        "region_code": "213", 
        "region_name": "moskva",
        "page_region": "в Москве", 
        "params": {}
    }, 
    {
        "engine": "google", 
        "domain": "ru", 
        "region_code": "10JzQvtGB0LrQstCw",
        "region_name": "moskva",
        "page_region": null, 
        "params": {
            "hl": "ru"
        }
    }, 
    {
        "engine": "mail", 
        "domain": "ru", 
        "region_code": "70", 
        "region_name": "moskva",
        "page_region": null, 
        "params": {}
    },
    {
        "engine": "mail",
        "domain": "ru",
        "region_code": "107",
        "region_name": "peterburg",
        "page_region": null,
        "params": {}
    },
    {
        "engine": "google",
        "domain": "ru",
        "region_code": "10JzQvtGB0LrQvtCy0YHQutCw0Y8g0L7QsdC70LDRgdGC0Yw",
        "region_name": "moscow_region",
        "page_region": null,
        "params": {
            "hl": "ru"
        }
    },
    {
        "engine": "google",
        "domain": "ru",
        "region_code": "10JvQtdC90LjQvdCz0YDQsNC00YHQutCw0Y8g0L7QsdC70LDRgdGC0Yw",
        "region_name": "peterburg_region",
        "page_region": null,
        "params": {
            "hl": "ru"
        }
    },
    {
        "engine": "google",
        "domain": "ru",
        "region_code": "10KDQvtGB0YHQuNGP",
        "region_name": "russia",
        "page_region": null,
        "params": {
            "hl": "ru"
        }
    },
    {
        "engine": "yandex",
        "domain": "ru",
        "region_code": "10174",
        "region_name": "peterburg_region",
        "page_region": null,
        "params": {}
    },
    {
        "engine": "mail",
        "domain": "ru",
        "region_code": "70",
        "region_name": "moscow_region",
        "page_region": null,
        "params": {}
    },
    {
        "engine": "yandex",
        "domain": "ru",
        "region_code": "75",
        "region_name": "vladivostok",
        "page_region": null,
        "params": {}
    },
    {
        "engine": "yandex",
        "domain": "ru",
        "region_code": "11162",
        "region_name": "sverdlovsk_region",
        "page_region": null,
        "params": {}
    },
    {
        "engine": "google",
        "domain": "ru",
        "region_code": "10KHQstC10YDQtNC70L7QstGB0LrQsNGPINC-0LHQu9Cw0YHRgtGM",
        "region_name": "sverdlovsk_region",
        "page_region": null,
        "params": {
            "hl": "ru"
        }
    },
    {
        "engine": "mail",
        "domain": "ru",
        "region_code": "32",
        "region_name": "ekaterinburg",
        "page_region": null,
        "params": {}
    },
    {
        "engine": "mail",
        "domain": "ru",
        "region_code": "42",
        "region_name": "kazan",
        "page_region": null,
        "params": {}
    },
    {
        "engine": "mail",
        "domain": "ru",
        "region_code": "85",
        "region_name": "novosibirsk",
        "page_region": null,
        "params": {}
    },
    {
        "engine": "mail",
        "domain": "ru",
        "region_code": "53",
        "region_name": "krasnodar",
        "page_region": null,
        "params": {}
    },
    {
        "engine": "mail",
        "domain": "ru",
        "region_code": "104",
        "region_name": "rostov",
        "page_region": null,
        "params": {}
    },
    {
        "engine": "mail",
        "domain": "ru",
        "region_code": "24",
        "region_name": "voronezh",
        "page_region": null,
        "params": {}
    },
    {
        "engine": "mail",
        "domain": "ru",
        "region_code": "134",
        "region_name": "ufa",
        "page_region": null,
        "params": {}
    },
    {
        "engine": "mail",
        "domain": "ru",
        "region_code": "92",
        "region_name": "omsk",
        "page_region": null,
        "params": {}
    },
    {
        "engine": "mail",
        "domain": "ru",
        "region_code": "378",
        "region_name": "astana",
        "page_region": null,
        "params": {}
    },
    {
        "engine": "mail",
        "domain": "ru",
        "region_code": "265",
        "region_name": "kiev",
        "page_region": null,
        "params": {}
    },
    {
        "engine": "mail",
        "domain": "ru",
        "region_code": "285",
        "region_name": "minsk",
        "page_region": null,
        "params": {}
    },
    {
        "engine": "mail",
        "domain": "ru",
        "region_code": "18",
        "region_name": "vladivostok",
        "page_region": null,
        "params": {}
    },
    {
        "engine": "mail",
        "domain": "ru",
        "region_code": "0",
        "region_name": "russia",
        "page_region": null,
        "params": {}
    },
    {
        "engine": "mail",
        "domain": "ru",
        "region_code": "32",
        "region_name": "sverdlovsk_region",
        "page_region": null,
        "params": {}
    },
    {
        "engine": "mail",
        "domain": "ru",
        "region_code": "107",
        "region_name": "peterburg_region",
        "page_region": null,
        "params": {}
    }
]